lab3
…
##  Attaching packages  tidyverse 1.3.0 

##  ggplot2 3.3.2      purrr   0.3.4
##  tibble  3.0.3      dplyr   1.0.2
##  tidyr   1.1.2      stringr 1.4.0
##  readr   1.3.1      forcats 0.5.0

##  Conflicts  tidyverse_conflicts() 
## x dplyr::filter() masks stats::filter()
## x dplyr::lag()    masks stats::lag()

dat <- readxl::read_xls('GSS.xls')
dat

## # A tibble: 64,816 x 5
##    `Marital status` `Highest year o `Respondents se `Political part
##    <chr>            <chr>            <chr>            <chr>           
##  1 Never married    16               Female           Ind,near dem    
##  2 Married          10               Male             Not str democrat
##  3 Married          12               Female           Independent     
##  4 Married          17               Female           Not str democrat
##  5 Married          12               Female           Strong democrat 
##  6 Never married    14               Male             Ind,near dem    
##  7 Divorced         13               Male             Ind,near dem    
##  8 Never married    16               Male             Ind,near dem    
##  9 Never married    12               Female           Strong democrat 
## 10 Married          12               Female           Strong democrat 
## #  with 64,806 more rows, and 1 more variable: `General happiness` <chr>

Clean data

dat_clean <- dat %>% rename(marital_status='Marital status', years_school='Highest year of school completed', sex='Respondents sex', pol_party='Political party affiliation', happy_lvl='General happiness')
names(dat_clean)

## [1] "marital_status" "years_school"   "sex"            "pol_party"     
## [5] "happy_lvl"

dat_clean

## # A tibble: 64,816 x 5
##    marital_status years_school sex    pol_party        happy_lvl    
##    <chr>          <chr>        <chr>  <chr>            <chr>        
##  1 Never married  16           Female Ind,near dem     Not too happy
##  2 Married        10           Male   Not str democrat Not too happy
##  3 Married        12           Female Independent      Pretty happy 
##  4 Married        17           Female Not str democrat Not too happy
##  5 Married        12           Female Strong democrat  Pretty happy 
##  6 Never married  14           Male   Ind,near dem     Pretty happy 
##  7 Divorced       13           Male   Ind,near dem     Not too happy
##  8 Never married  16           Male   Ind,near dem     Not too happy
##  9 Never married  12           Female Strong democrat  Pretty happy 
## 10 Married        12           Female Strong democrat  Pretty happy 
## #  with 64,806 more rows
…
